<?xml version="1.0" encoding="UTF-8" standalone="no"?>
<svg
   xmlns:dc="http://purl.org/dc/elements/1.1/"
   xmlns:cc="http://creativecommons.org/ns#"
   xmlns:rdf="http://www.w3.org/1999/02/22-rdf-syntax-ns#"
   xmlns:svg="http://www.w3.org/2000/svg"
   xmlns="http://www.w3.org/2000/svg"
   xmlns:xlink="http://www.w3.org/1999/xlink"
   xmlns:sodipodi="http://sodipodi.sourceforge.net/DTD/sodipodi-0.dtd"
   width="310mm"
   height="310mm"
   viewBox="0 0 310 310"
   version="1.1"
   id="svg8">
  <defs
     id="defs2">
    <rect
       x="78.765526"
       y="99.913063"
       width="88.532608"
       height="79.014915"
       id="rect845" />
    <linearGradient
       id="linearGradient839">
      <stop
         style="stop-color:#000000;stop-opacity:1;"
         offset="0"
         id="stop835" />
      <stop
         style="stop-color:#000000;stop-opacity:0;"
         offset="1"
         id="stop837" />
    </linearGradient>
    <linearGradient
       xlink:href="#linearGradient839"
       id="linearGradient841"
       x1="154.88141"
       y1="162.50891"
       x2="26.740997"
       y2="39.027142"
       gradientUnits="userSpaceOnUse"
       gradientTransform="translate(4.0722733,38.034897)" />
    <linearGradient
       gradientTransform="translate(4.0722733,38.034897)"
       gradientUnits="userSpaceOnUse"
       y2="39.027142"
       x2="26.740997"
       y1="162.50891"
       x1="154.88141"
       id="linearGradient841-3"
       xlink:href="#linearGradient839" />
    <linearGradient
       xlink:href="#linearGradient839"
       id="linearGradient931"
       gradientUnits="userSpaceOnUse"
       gradientTransform="translate(4.0722733,38.034897)"
       x1="154.88141"
       y1="162.50891"
       x2="26.740997"
       y2="39.027142" />
    <linearGradient
       xlink:href="#linearGradient839"
       id="linearGradient953"
       gradientUnits="userSpaceOnUse"
       gradientTransform="translate(4.0722733,38.034897)"
       x1="154.88141"
       y1="162.50891"
       x2="26.740997"
       y2="39.027142" />
    <linearGradient
       xlink:href="#linearGradient839"
       id="linearGradient975"
       gradientUnits="userSpaceOnUse"
       gradientTransform="translate(4.0722733,38.034897)"
       x1="154.88141"
       y1="162.50891"
       x2="26.740997"
       y2="39.027142" />
    <linearGradient
       xlink:href="#linearGradient839"
       id="linearGradient997"
       gradientUnits="userSpaceOnUse"
       gradientTransform="translate(4.0722733,38.034897)"
       x1="154.88141"
       y1="162.50891"
       x2="26.740997"
       y2="39.027142" />
    <linearGradient
       xlink:href="#linearGradient839"
       id="linearGradient1019"
       gradientUnits="userSpaceOnUse"
       gradientTransform="translate(4.0722733,38.034897)"
       x1="154.88141"
       y1="162.50891"
       x2="26.740997"
       y2="39.027142" />
    <linearGradient
       xlink:href="#linearGradient839"
       id="linearGradient1041"
       gradientUnits="userSpaceOnUse"
       gradientTransform="translate(4.0722733,38.034897)"
       x1="154.88141"
       y1="162.50891"
       x2="26.740997"
       y2="39.027142" />
  </defs>
  <metadata
     id="metadata5">
    <rdf:RDF>
      <cc:Work
         rdf:about="">
        <dc:format>image/svg+xml</dc:format>
        <dc:type
           rdf:resource="http://purl.org/dc/dcmitype/StillImage" />
        <dc:title></dc:title>
      </cc:Work>
    </rdf:RDF>
  </metadata>
  <g
     id="layer1">
    <rect
       style="fill:#ac9393;fill-opacity:1;stroke:#500050;stroke-width:6.43582;stroke-miterlimit:4;stroke-dasharray:none;stroke-opacity:1"
       id="rect872"
       width="293.56418"
       height="293.56418"
       x="8.2179108"
       y="8.2179108"
       ry="0" />
    <g
       id="piece1"
       transform="matrix(0.90165354,0,0,0.93381453,-37.808177,-81.854283)">
      <rect
         ry="7.559516"
         y="96.456192"
         x="51.04631"
         height="104.08762"
         width="107.90738"
         id="rect833"
         style="opacity:1;fill:#ffffff;fill-opacity:1;stroke:url(#linearGradient841);stroke-width:3;stroke-miterlimit:4;stroke-dasharray:none;stroke-opacity:1" />
      <text
         transform="translate(9.627637,27.238498)"
         style="font-style:normal;font-weight:normal;font-size:50.8px;line-height:1.05;font-family:sans-serif;letter-spacing:0px;word-spacing:0px;white-space:pre;shape-inside:url(#rect845);fill:#000000;fill-opacity:1;stroke:none;"
         id="text843"
         xml:space="preserve"><tspan
           sodipodi:role="line"
           x="78.765625"
           y="139.7782"><tspan>1</tspan></tspan></text>
    </g>
    <g
       transform="matrix(0.90165354,0,0,0.93381454,59.486896,-81.854284)"
       id="piece2">
      <rect
         style="opacity:1;fill:#ffffff;fill-opacity:1;stroke:url(#linearGradient841-3);stroke-width:3;stroke-miterlimit:4;stroke-dasharray:none;stroke-opacity:1"
         id="rect833-3"
         width="107.90738"
         height="104.08762"
         x="51.04631"
         y="96.456192"
         ry="7.559516" />
      <text
         xml:space="preserve"
         id="text843-5"
         style="font-style:normal;font-weight:normal;font-size:50.8px;line-height:1.05;font-family:sans-serif;letter-spacing:0px;word-spacing:0px;white-space:pre;shape-inside:url(#rect845);fill:#000000;fill-opacity:1;stroke:none;"
         transform="translate(9.627637,27.238498)"><tspan
           sodipodi:role="line"
           x="78.765625"
           y="139.7782"><tspan>2</tspan></tspan></text>
    </g>
    <g
       transform="matrix(0.90165354,0,0,0.93381454,156.78196,-81.854284)"
       id="piece3">
      <rect
         style="opacity:1;fill:#ffffff;fill-opacity:1;stroke:url(#linearGradient931);stroke-width:3;stroke-miterlimit:4;stroke-dasharray:none;stroke-opacity:1"
         id="rect833-2"
         width="107.90738"
         height="104.08762"
         x="51.04631"
         y="96.456192"
         ry="7.559516" />
      <text
         xml:space="preserve"
         id="text843-7"
         style="font-style:normal;font-weight:normal;font-size:50.8px;line-height:1.05;font-family:sans-serif;letter-spacing:0px;word-spacing:0px;white-space:pre;shape-inside:url(#rect845);fill:#000000;fill-opacity:1;stroke:none;"
         transform="translate(9.627637,27.238498)"><tspan
           sodipodi:role="line"
           x="78.765625"
           y="139.7782"><tspan>3</tspan></tspan></text>
    </g>
    <g
       transform="matrix(0.90165354,0,0,0.93381454,-37.808177,15.344258)"
       id="piece4">
      <rect
         style="opacity:1;fill:#ffffff;fill-opacity:1;stroke:url(#linearGradient953);stroke-width:3;stroke-miterlimit:4;stroke-dasharray:none;stroke-opacity:1"
         id="rect833-0"
         width="107.90738"
         height="104.08762"
         x="51.04631"
         y="96.456192"
         ry="7.559516" />
      <text
         xml:space="preserve"
         id="text843-6"
         style="font-style:normal;font-weight:normal;font-size:50.8px;line-height:1.05;font-family:sans-serif;letter-spacing:0px;word-spacing:0px;white-space:pre;shape-inside:url(#rect845);fill:#000000;fill-opacity:1;stroke:none;"
         transform="translate(9.627637,27.238498)"><tspan
           sodipodi:role="line"
           x="78.765625"
           y="139.7782"><tspan>4</tspan></tspan></text>
    </g>
    <g
       transform="matrix(0.90165354,0,0,0.93381454,59.486896,15.344259)"
       id="piece5">
      <rect
         style="opacity:1;fill:#ffffff;fill-opacity:1;stroke:url(#linearGradient975);stroke-width:3;stroke-miterlimit:4;stroke-dasharray:none;stroke-opacity:1"
         id="rect833-7"
         width="107.90738"
         height="104.08762"
         x="51.04631"
         y="96.456192"
         ry="7.559516" />
      <text
         xml:space="preserve"
         id="text843-9"
         style="font-style:normal;font-weight:normal;font-size:50.8px;line-height:1.05;font-family:sans-serif;letter-spacing:0px;word-spacing:0px;white-space:pre;shape-inside:url(#rect845);fill:#000000;fill-opacity:1;stroke:none;"
         transform="translate(9.627637,27.238498)"><tspan
           sodipodi:role="line"
           x="78.765625"
           y="139.7782"><tspan>5</tspan></tspan></text>
    </g>
    <g
       transform="matrix(0.90165354,0,0,0.93381454,156.78196,15.344259)"
       id="piece6">
      <rect
         style="opacity:1;fill:#ffffff;fill-opacity:1;stroke:url(#linearGradient997);stroke-width:3;stroke-miterlimit:4;stroke-dasharray:none;stroke-opacity:1"
         id="rect833-75"
         width="107.90738"
         height="104.08762"
         x="51.04631"
         y="96.456192"
         ry="7.559516" />
      <text
         xml:space="preserve"
         id="text843-92"
         style="font-style:normal;font-weight:normal;font-size:50.8px;line-height:1.05;font-family:sans-serif;letter-spacing:0px;word-spacing:0px;white-space:pre;shape-inside:url(#rect845);fill:#000000;fill-opacity:1;stroke:none;"
         transform="translate(9.627637,27.238498)"><tspan
           sodipodi:role="line"
           x="78.765625"
           y="139.7782"><tspan>6</tspan></tspan></text>
    </g>
    <g
       transform="matrix(0.90165354,0,0,0.93381454,-37.808177,112.54279)"
       id="piece7">
      <rect
         style="opacity:1;fill:#ffffff;fill-opacity:1;stroke:url(#linearGradient1019);stroke-width:3;stroke-miterlimit:4;stroke-dasharray:none;stroke-opacity:1"
         id="rect833-36"
         width="107.90738"
         height="104.08762"
         x="51.04631"
         y="96.456192"
         ry="7.559516" />
      <text
         xml:space="preserve"
         id="text843-1"
         style="font-style:normal;font-weight:normal;font-size:50.8px;line-height:1.05;font-family:sans-serif;letter-spacing:0px;word-spacing:0px;white-space:pre;shape-inside:url(#rect845);fill:#000000;fill-opacity:1;stroke:none;"
         transform="translate(9.627637,27.238498)"><tspan
           sodipodi:role="line"
           x="78.765625"
           y="139.7782"><tspan>7</tspan></tspan></text>
    </g>
    <g
       transform="matrix(0.90165354,0,0,0.93381454,59.486896,112.54279)"
       id="piece8">
      <rect
         style="opacity:1;fill:#ffffff;fill-opacity:1;stroke:url(#linearGradient1041);stroke-width:3;stroke-miterlimit:4;stroke-dasharray:none;stroke-opacity:1"
         id="rect833-4"
         width="107.90738"
         height="104.08762"
         x="51.04631"
         y="96.456192"
         ry="7.559516" />
      <text
         xml:space="preserve"
         id="text843-78"
         style="font-style:normal;font-weight:normal;font-size:50.8px;line-height:1.05;font-family:sans-serif;letter-spacing:0px;word-spacing:0px;white-space:pre;shape-inside:url(#rect845);fill:#000000;fill-opacity:1;stroke:none;"
         transform="translate(9.627637,27.238498)"><tspan
           sodipodi:role="line"
           x="78.765625"
           y="139.7782"><tspan>8</tspan></tspan></text>
    </g>
  </g>
</svg>
